0402
…
- mixture = tune() : α (tune()자리에 0을 넣으면 ridge됨)

tune_spec <- linear_reg(penalty = tune(),
                        mixture = 0) %>%
  set_engine("glmnet")

# 0~1까지 람다를 균등하게 50개 뽑기
param_grid <- grid_regular(penalty(), levels = 50)
                           #mixture(),
                           #levels = list(penalty =100,
                                         #mixture = 10))
param_grid

## # A tibble: 50 x 1
##     penalty
##       <dbl>
##  1 1   e-10
##  2 1.60e-10
##  3 2.56e-10
##  4 4.09e-10
##  5 6.55e-10
##  6 1.05e- 9
##  7 1.68e- 9
##  8 2.68e- 9
##  9 4.29e- 9
## 10 6.87e- 9
## # … with 40 more rows
…
tic()
tune_result <- workflow %>%
  tune_grid(validation_split, 
            grid = param_grid, 
            metrics = metric_set(rmse))
toc()

## 0.771 sec elapsed

tune_result %>%
  collect_metrics()

## # A tibble: 50 x 7
##     penalty .metric .estimator  mean     n std_err .config              
##       <dbl> <chr>   <chr>      <dbl> <int>   <dbl> <chr>                
##  1 1   e-10 rmse    standard    3.83     1      NA Preprocessor1_Model01
##  2 1.60e-10 rmse    standard    3.83     1      NA Preprocessor1_Model02
##  3 2.56e-10 rmse    standard    3.83     1      NA Preprocessor1_Model03
##  4 4.09e-10 rmse    standard    3.83     1      NA Preprocessor1_Model04
##  5 6.55e-10 rmse    standard    3.83     1      NA Preprocessor1_Model05
##  6 1.05e- 9 rmse    standard    3.83     1      NA Preprocessor1_Model06
##  7 1.68e- 9 rmse    standard    3.83     1      NA Preprocessor1_Model07
##  8 2.68e- 9 rmse    standard    3.83     1      NA Preprocessor1_Model08
##  9 4.29e- 9 rmse    standard    3.83     1      NA Preprocessor1_Model09
## 10 6.87e- 9 rmse    standard    3.83     1      NA Preprocessor1_Model10
## # … with 40 more rows
…
